<?xml version="1.0" encoding="utf-8"?>
<!DOCTYPE eagle SYSTEM "eagle.dtd">
<eagle version="7.3.0">
<drawing>
<settings>
<setting alwaysvectorfont="no"/>
<setting verticaltext="up"/>
</settings>
<grid distance="100" unitdist="mil" unit="mil" style="lines" multiple="1" display="yes" altdistance="0.01" altunitdist="inch" altunit="inch"/>
<layers>
<layer number="1" name="Top" color="4" fill="1" visible="no" active="no"/>
<layer number="2" name="Route2" color="1" fill="3" visible="no" active="no"/>
<layer number="3" name="Route3" color="4" fill="3" visible="no" active="no"/>
<layer number="4" name="Route4" color="1" fill="4" visible="no" active="no"/>
<layer number="5" name="Route5" color="4" fill="4" visible="no" active="no"/>
<layer number="6" name="Route6" color="1" fill="8" visible="no" active="no"/>
<layer number="7" name="Route7" color="4" fill="8" visible="no" active="no"/>
<layer number="8" name="Route8" color="1" fill="2" visible="no" active="no"/>
<layer number="9" name="Route9" color="4" fill="2" visible="no" active="no"/>
<layer number="10" name="Route10" color="1" fill="7" visible="no" active="no"/>
<layer number="11" name="Route11" color="4" fill="7" visible="no" active="no"/>
<layer number="12" name="Route12" color="1" fill="5" visible="no" active="no"/>
<layer number="13" name="Route13" color="4" fill="5" visible="no" active="no"/>
<layer number="14" name="Route14" color="1" fill="6" visible="no" active="no"/>
<layer number="15" name="Route15" color="4" fill="6" visible="no" active="no"/>
<layer number="16" name="Bottom" color="1" fill="1" visible="no" active="no"/>
<layer number="17" name="Pads" color="2" fill="1" visible="no" active="no"/>
<layer number="18" name="Vias" color="2" fill="1" visible="no" active="no"/>
<layer number="19" name="Unrouted" color="6" fill="1" visible="no" active="no"/>
<layer number="20" name="Dimension" color="15" fill="1" visible="no" active="no"/>
<layer number="21" name="tPlace" color="15" fill="1" visible="no" active="no"/>
<layer number="22" name="bPlace" color="7" fill="1" visible="no" active="no"/>
<layer number="23" name="tOrigins" color="15" fill="1" visible="no" active="no"/>
<layer number="24" name="bOrigins" color="7" fill="1" visible="no" active="no"/>
<layer number="25" name="tNames" color="15" fill="1" visible="no" active="no"/>
<layer number="26" name="bNames" color="7" fill="1" visible="no" active="no"/>
<layer number="27" name="tValues" color="15" fill="1" visible="no" active="no"/>
<layer number="28" name="bValues" color="7" fill="1" visible="no" active="no"/>
<layer number="29" name="tStop" color="7" fill="3" visible="no" active="no"/>
<layer number="30" name="bStop" color="7" fill="6" visible="no" active="no"/>
<layer number="31" name="tCream" color="7" fill="4" visible="no" active="no"/>
<layer number="32" name="bCream" color="7" fill="5" visible="no" active="no"/>
<layer number="33" name="tFinish" color="6" fill="3" visible="no" active="no"/>
<layer number="34" name="bFinish" color="6" fill="6" visible="no" active="no"/>
<layer number="35" name="tGlue" color="7" fill="4" visible="no" active="no"/>
<layer number="36" name="bGlue" color="7" fill="5" visible="no" active="no"/>
<layer number="37" name="tTest" color="7" fill="1" visible="no" active="no"/>
<layer number="38" name="bTest" color="7" fill="1" visible="no" active="no"/>
<layer number="39" name="tKeepout" color="4" fill="11" visible="no" active="no"/>
<layer number="40" name="bKeepout" color="1" fill="11" visible="no" active="no"/>
<layer number="41" name="tRestrict" color="4" fill="10" visible="no" active="no"/>
<layer number="42" name="bRestrict" color="1" fill="10" visible="no" active="no"/>
<layer number="43" name="vRestrict" color="2" fill="10" visible="no" active="no"/>
<layer number="44" name="Drills" color="7" fill="1" visible="no" active="no"/>
<layer number="45" name="Holes" color="10" fill="1" visible="no" active="no"/>
<layer number="46" name="Milling" color="3" fill="1" visible="no" active="no"/>
<layer number="47" name="Measures" color="7" fill="1" visible="no" active="no"/>
<layer number="48" name="Document" color="7" fill="1" visible="no" active="no"/>
<layer number="49" name="Reference" color="7" fill="1" visible="no" active="no"/>
<layer number="50" name="dxf" color="7" fill="1" visible="no" active="no"/>
<layer number="51" name="tDocu" color="14" fill="1" visible="no" active="no"/>
<layer number="52" name="bDocu" color="6" fill="1" visible="no" active="no"/>
<layer number="53" name="tGND_GNDA" color="7" fill="9" visible="no" active="no"/>
<layer number="54" name="bGND_GNDA" color="1" fill="9" visible="no" active="no"/>
<layer number="56" name="wert" color="7" fill="1" visible="no" active="no"/>
<layer number="90" name="Modules" color="5" fill="1" visible="yes" active="yes"/>
<layer number="91" name="Nets" color="2" fill="1" visible="yes" active="yes"/>
<layer number="92" name="Busses" color="1" fill="1" visible="yes" active="yes"/>
<layer number="93" name="Pins" color="2" fill="1" visible="no" active="yes"/>
<layer number="94" name="Symbols" color="4" fill="1" visible="yes" active="yes"/>
<layer number="95" name="Names" color="3" fill="1" visible="yes" active="yes"/>
<layer number="96" name="Values" color="9" fill="1" visible="yes" active="yes"/>
<layer number="97" name="Info" color="7" fill="1" visible="yes" active="yes"/>
<layer number="98" name="Guide" color="6" fill="1" visible="yes" active="yes"/>
<layer number="100" name="Muster" color="7" fill="1" visible="yes" active="yes"/>
<layer number="101" name="Patch_Top" color="5" fill="4" visible="yes" active="yes"/>
<layer number="102" name="Mittellin" color="7" fill="1" visible="yes" active="yes"/>
<layer number="103" name="Stiffner" color="7" fill="1" visible="yes" active="yes"/>
<layer number="104" name="Name" color="7" fill="1" visible="yes" active="yes"/>
<layer number="105" name="Beschreib" color="7" fill="1" visible="yes" active="yes"/>
<layer number="106" name="BGA-Top" color="7" fill="1" visible="yes" active="yes"/>
<layer number="107" name="BD-Top" color="7" fill="1" visible="yes" active="yes"/>
<layer number="108" name="tBridges" color="7" fill="1" visible="yes" active="yes"/>
<layer number="109" name="tBPL" color="7" fill="1" visible="yes" active="yes"/>
<layer number="110" name="bBPL" color="7" fill="1" visible="yes" active="yes"/>
<layer number="111" name="MPL" color="7" fill="1" visible="yes" active="yes"/>
<layer number="112" name="tSilk" color="7" fill="1" visible="yes" active="yes"/>
<layer number="113" name="wago-modra" color="1" fill="8" visible="yes" active="yes"/>
<layer number="116" name="Patch_BOT" color="7" fill="1" visible="yes" active="yes"/>
<layer number="121" name="sName" color="7" fill="1" visible="yes" active="yes"/>
<layer number="122" name="_bPlace" color="7" fill="1" visible="yes" active="yes"/>
<layer number="125" name="_tNames" color="7" fill="1" visible="yes" active="yes"/>
<layer number="126" name="_bNames" color="7" fill="1" visible="yes" active="yes"/>
<layer number="127" name="_tValues" color="7" fill="1" visible="yes" active="yes"/>
<layer number="128" name="_bValues" color="7" fill="1" visible="yes" active="yes"/>
<layer number="144" name="Drill_legend" color="7" fill="1" visible="yes" active="yes"/>
<layer number="151" name="HeatSink" color="7" fill="1" visible="yes" active="yes"/>
<layer number="152" name="_bDocu" color="7" fill="1" visible="yes" active="yes"/>
<layer number="200" name="200bmp" color="1" fill="10" visible="yes" active="yes"/>
<layer number="201" name="201bmp" color="7" fill="1" visible="yes" active="yes"/>
<layer number="202" name="202bmp" color="7" fill="1" visible="yes" active="yes"/>
<layer number="203" name="203bmp" color="7" fill="1" visible="yes" active="yes"/>
<layer number="204" name="204bmp" color="7" fill="1" visible="yes" active="yes"/>
<layer number="205" name="205bmp" color="7" fill="1" visible="yes" active="yes"/>
<layer number="206" name="206bmp" color="7" fill="10" visible="no" active="no"/>
<layer number="207" name="207bmp" color="8" fill="10" visible="no" active="no"/>
<layer number="208" name="208bmp" color="9" fill="10" visible="no" active="no"/>
<layer number="209" name="209bmp" color="7" fill="1" visible="no" active="no"/>
<layer number="210" name="210bmp" color="7" fill="1" visible="no" active="no"/>
<layer number="211" name="211bmp" color="7" fill="1" visible="no" active="no"/>
<layer number="212" name="212bmp" color="7" fill="1" visible="no" active="no"/>
<layer number="213" name="213bmp" color="7" fill="1" visible="no" active="no"/>
<layer number="214" name="214bmp" color="7" fill="1" visible="no" active="no"/>
<layer number="215" name="215bmp" color="7" fill="1" visible="no" active="no"/>
<layer number="216" name="216bmp" color="7" fill="1" visible="no" active="no"/>
<layer number="217" name="217bmp" color="7" fill="1" visible="no" active="no"/>
<layer number="218" name="218bmp" color="7" fill="1" visible="no" active="no"/>
<layer number="219" name="219bmp" color="7" fill="1" visible="no" active="no"/>
<layer number="220" name="220bmp" color="7" fill="1" visible="no" active="no"/>
<layer number="221" name="221bmp" color="7" fill="1" visible="no" active="no"/>
<layer number="222" name="222bmp" color="7" fill="1" visible="no" active="no"/>
<layer number="223" name="223bmp" color="7" fill="1" visible="no" active="no"/>
<layer number="224" name="224bmp" color="7" fill="1" visible="no" active="no"/>
<layer number="248" name="Housing" color="7" fill="1" visible="yes" active="yes"/>
<layer number="249" name="Edge" color="7" fill="1" visible="yes" active="yes"/>
<layer number="250" name="Descript" color="7" fill="1" visible="yes" active="yes"/>
<layer number="251" name="SMDround" color="7" fill="1" visible="yes" active="yes"/>
<layer number="254" name="cooling" color="7" fill="1" visible="yes" active="yes"/>
</layers>
<schematic xreflabel="%F%N/%S.%C%R" xrefpart="/%S.%C%R">
<libraries>
<library name="mb2j_components">
<packages>
<package name="SOT23">
<description>&lt;b&gt;SOT-23&lt;/b&gt;</description>
<wire x1="1.4224" y1="0.6604" x2="1.4224" y2="-0.6604" width="0.1524" layer="51"/>
<wire x1="1.4224" y1="-0.6604" x2="-1.4224" y2="-0.6604" width="0.1524" layer="51"/>
<wire x1="-1.4224" y1="-0.6604" x2="-1.4224" y2="0.6604" width="0.1524" layer="51"/>
<wire x1="-1.4224" y1="0.6604" x2="1.4224" y2="0.6604" width="0.1524" layer="51"/>
<smd name="3" x="0" y="1.1" dx="1" dy="1.4" layer="1"/>
<smd name="2" x="0.95" y="-1.1" dx="1" dy="1.4" layer="1"/>
<smd name="1" x="-0.95" y="-1.1" dx="1" dy="1.4" layer="1"/>
<text x="-1.905" y="1.905" size="1.27" layer="25">&gt;NAME</text>
<text x="-1.905" y="-3.175" size="1.27" layer="27">&gt;VALUE</text>
<rectangle x1="-0.2286" y1="0.7112" x2="0.2286" y2="1.2954" layer="51"/>
<rectangle x1="0.7112" y1="-1.2954" x2="1.1684" y2="-0.7112" layer="51"/>
<rectangle x1="-1.1684" y1="-1.2954" x2="-0.7112" y2="-0.7112" layer="51"/>
</package>
<package name="CHIPLED_1206">
<description>&lt;b&gt;CHIPLED 1206&lt;/b&gt;</description>
<wire x1="-0.4" y1="1.6" x2="0.4" y2="1.6" width="0.1016" layer="51" curve="172.619069"/>
<wire x1="-0.8" y1="-0.95" x2="-0.8" y2="0.95" width="0.1016" layer="51"/>
<wire x1="0.8" y1="0.95" x2="0.8" y2="-0.95" width="0.1016" layer="51"/>
<wire x1="-0.6" y1="0.446" x2="0" y2="0.446" width="0.2032" layer="21"/>
<wire x1="0" y1="0.446" x2="0.6" y2="0.446" width="0.2032" layer="21"/>
<wire x1="0" y1="0.446" x2="-0.6" y2="-0.154" width="0.2032" layer="21"/>
<wire x1="-0.6" y1="-0.154" x2="0.6" y2="-0.154" width="0.2032" layer="21"/>
<wire x1="0.6" y1="-0.154" x2="0" y2="0.446" width="0.2032" layer="21"/>
<wire x1="1" y1="2.4985" x2="-1" y2="2.4985" width="0.2032" layer="21"/>
<wire x1="-1" y1="2.4985" x2="-1" y2="-2.4985" width="0.2032" layer="21"/>
<wire x1="-1" y1="-2.4985" x2="1" y2="-2.4985" width="0.2032" layer="21"/>
<wire x1="1" y1="-2.4985" x2="1" y2="2.4985" width="0.2032" layer="21"/>
<circle x="-0.55" y="1.425" radius="0.1" width="0.0762" layer="51"/>
<smd name="C" x="0" y="1.496" dx="1.5" dy="1.5" layer="1"/>
<smd name="A" x="0" y="-1.496" dx="1.5" dy="1.5" layer="1"/>
<text x="-1.27" y="-2.286" size="0.8128" layer="25" ratio="18" rot="R90">&gt;NAME</text>
<text x="1.651" y="-2.286" size="0.4064" layer="27" ratio="10" rot="R90">&gt;VALUE</text>
<text x="-0.1" y="-2.23" size="0.4064" layer="51">A</text>
<text x="-0.1" y="1.86" size="0.4064" layer="51">C</text>
<rectangle x1="-0.85" y1="1.525" x2="-0.35" y2="1.65" layer="51"/>
<rectangle x1="-0.85" y1="1.225" x2="-0.625" y2="1.55" layer="51"/>
<rectangle x1="-0.45" y1="1.225" x2="-0.325" y2="1.45" layer="51"/>
<rectangle x1="-0.65" y1="1.225" x2="-0.225" y2="1.35" layer="51"/>
<rectangle x1="0.35" y1="1.3" x2="0.85" y2="1.65" layer="51"/>
<rectangle x1="0.25" y1="1.225" x2="0.85" y2="1.35" layer="51"/>
<rectangle x1="-0.85" y1="0.95" x2="0.85" y2="1.25" layer="51"/>
<rectangle x1="-0.85" y1="-1.65" x2="0.85" y2="-0.95" layer="51"/>
</package>
<package name="CHIPLED_0805">
<description>&lt;b&gt;CHIPLED 0805&lt;/b&gt;</description>
<wire x1="-0.35" y1="0.925" x2="0.35" y2="0.925" width="0.1016" layer="51" curve="162.394521"/>
<wire x1="-0.35" y1="-0.925" x2="0.35" y2="-0.925" width="0.1016" layer="51" curve="-162.394521"/>
<wire x1="0.575" y1="0.525" x2="0.575" y2="-0.525" width="0.1016" layer="51"/>
<wire x1="-0.575" y1="-0.5" x2="-0.575" y2="0.925" width="0.1016" layer="51"/>
<wire x1="-0.4" y1="0.2" x2="0" y2="0.2" width="0.2032" layer="21"/>
<wire x1="0" y1="0.2" x2="0.4" y2="0.2" width="0.2032" layer="21"/>
<wire x1="0" y1="0.2" x2="-0.4" y2="-0.2" width="0.2032" layer="21"/>
<wire x1="-0.4" y1="-0.2" x2="0.4" y2="-0.2" width="0.2032" layer="21"/>
<wire x1="0.4" y1="-0.2" x2="0" y2="0.2" width="0.2032" layer="21"/>
<wire x1="0.85" y1="-1.9" x2="-0.85" y2="-1.9" width="0.2032" layer="21"/>
<wire x1="-0.85" y1="-1.9" x2="-0.85" y2="1.9" width="0.2032" layer="21"/>
<wire x1="-0.85" y1="1.9" x2="0.85" y2="1.9" width="0.2032" layer="21"/>
<wire x1="0.85" y1="1.9" x2="0.85" y2="-1.9" width="0.2032" layer="21"/>
<circle x="-0.45" y="0.85" radius="0.103" width="0.0762" layer="51"/>
<smd name="C" x="0" y="1.05" dx="1.2" dy="1.2" layer="1"/>
<smd name="A" x="0" y="-1.05" dx="1.2" dy="1.2" layer="1"/>
<text x="-1.016" y="-1.778" size="0.8128" layer="25" ratio="18" rot="R90">&gt;NAME</text>
<text x="1.397" y="-1.778" size="0.4064" layer="27" ratio="10" rot="R90">&gt;VALUE</text>
<text x="-0.1" y="-1.4" size="0.254" layer="51">A</text>
<text x="-0.1" y="1.2" size="0.254" layer="51">C</text>
<rectangle x1="0.3" y1="0.5" x2="0.625" y2="1" layer="51"/>
<rectangle x1="-0.325" y1="0.5" x2="-0.175" y2="0.75" layer="51"/>
<rectangle x1="0.175" y1="0.5" x2="0.325" y2="0.75" layer="51"/>
<rectangle x1="-0.2" y1="0.5" x2="0.2" y2="0.675" layer="51"/>
<rectangle x1="0.3" y1="-1" x2="0.625" y2="-0.5" layer="51"/>
<rectangle x1="-0.625" y1="-1" x2="-0.3" y2="-0.5" layer="51"/>
<rectangle x1="0.175" y1="-0.75" x2="0.325" y2="-0.5" layer="51"/>
<rectangle x1="-0.325" y1="-0.75" x2="-0.175" y2="-0.5" layer="51"/>
<rectangle x1="-0.2" y1="-0.675" x2="0.2" y2="-0.5" layer="51"/>
<rectangle x1="-0.6" y1="0.5" x2="-0.3" y2="0.762" layer="51"/>
<rectangle x1="-0.625" y1="0.925" x2="-0.3" y2="1" layer="51"/>
</package>
<package name="CHIPLED_0603">
<description>&lt;b&gt;CHIPLED 0603&lt;/b&gt;</description>
<wire x1="-0.3" y1="0.8" x2="0.3" y2="0.8" width="0.1016" layer="51" curve="170.055574"/>
<wire x1="-0.275" y1="-0.825" x2="0.275" y2="-0.825" width="0.0508" layer="51" curve="-180"/>
<wire x1="-0.4" y1="0.375" x2="-0.4" y2="-0.35" width="0.1016" layer="51"/>
<wire x1="0.4" y1="0.35" x2="0.4" y2="-0.35" width="0.1016" layer="51"/>
<wire x1="-0.65" y1="-1.4" x2="-0.65" y2="1.4" width="0.2032" layer="21"/>
<wire x1="0.65" y1="1.4" x2="0.65" y2="-1.4" width="0.2032" layer="21"/>
<wire x1="-0.65" y1="1.4" x2="0.65" y2="1.4" width="0.2032" layer="21"/>
<wire x1="-0.65" y1="-1.4" x2="0.65" y2="-1.4" width="0.2032" layer="21"/>
<wire x1="-0.4" y1="0.2" x2="0" y2="0.2" width="0.2032" layer="21"/>
<wire x1="0" y1="0.2" x2="0.4" y2="0.2" width="0.2032" layer="21"/>
<wire x1="0" y1="0.2" x2="-0.4" y2="-0.2" width="0.2032" layer="21"/>
<wire x1="-0.4" y1="-0.2" x2="0.4" y2="-0.2" width="0.2032" layer="21"/>
<wire x1="0.4" y1="-0.2" x2="0" y2="0.2" width="0.2032" layer="21"/>
<circle x="-0.35" y="0.625" radius="0.075" width="0.0508" layer="51"/>
<smd name="C" x="0" y="0.75" dx="0.8" dy="0.8" layer="1"/>
<smd name="A" x="0" y="-0.75" dx="0.8" dy="0.8" layer="1"/>
<text x="-0.762" y="-1.27" size="0.8128" layer="25" ratio="18" rot="R90">&gt;NAME</text>
<text x="1.27" y="-1.27" size="0.4064" layer="27" ratio="10" rot="R90">&gt;VALUE</text>
<rectangle x1="-0.45" y1="0.7" x2="-0.25" y2="0.85" layer="51"/>
<rectangle x1="-0.275" y1="0.55" x2="-0.225" y2="0.6" layer="51"/>
<rectangle x1="-0.45" y1="0.35" x2="-0.4" y2="0.725" layer="51"/>
<rectangle x1="0.25" y1="0.55" x2="0.45" y2="0.85" layer="51"/>
<rectangle x1="-0.45" y1="0.35" x2="0.45" y2="0.575" layer="51"/>
<rectangle x1="-0.45" y1="-0.85" x2="-0.25" y2="-0.35" layer="51"/>
<rectangle x1="0.25" y1="-0.85" x2="0.45" y2="-0.35" layer="51"/>
<rectangle x1="-0.275" y1="-0.575" x2="0.275" y2="-0.35" layer="51"/>
<rectangle x1="-0.275" y1="-0.65" x2="-0.175" y2="-0.55" layer="51"/>
<rectangle x1="0.175" y1="-0.65" x2="0.275" y2="-0.55" layer="51"/>
</package>
<package name="CHIPLED_0603_NOOUTLINE">
<wire x1="-0.3" y1="0.8" x2="0.3" y2="0.8" width="0.1016" layer="51" curve="170.055574"/>
<wire x1="-0.275" y1="-0.825" x2="0.275" y2="-0.825" width="0.0508" layer="51" curve="-180"/>
<wire x1="-0.4" y1="0.375" x2="-0.4" y2="-0.35" width="0.1016" layer="51"/>
<wire x1="0.4" y1="0.35" x2="0.4" y2="-0.35" width="0.1016" layer="51"/>
<circle x="-0.35" y="0.625" radius="0.075" width="0.0508" layer="51"/>
<smd name="C" x="0" y="0.75" dx="0.8" dy="0.8" layer="1"/>
<smd name="A" x="0" y="-0.75" dx="0.8" dy="0.8" layer="1"/>
<text x="-0.762" y="-1.27" size="0.8128" layer="25" ratio="18" rot="R90">&gt;NAME</text>
<text x="1.27" y="-1.27" size="0.4064" layer="27" ratio="10" rot="R90">&gt;VALUE</text>
<rectangle x1="-0.45" y1="0.7" x2="-0.25" y2="0.85" layer="51"/>
<rectangle x1="-0.275" y1="0.55" x2="-0.225" y2="0.6" layer="51"/>
<rectangle x1="-0.45" y1="0.35" x2="-0.4" y2="0.725" layer="51"/>
<rectangle x1="0.25" y1="0.55" x2="0.45" y2="0.85" layer="51"/>
<rectangle x1="-0.45" y1="0.35" x2="0.45" y2="0.575" layer="51"/>
<rectangle x1="-0.45" y1="-0.85" x2="-0.25" y2="-0.35" layer="51"/>
<rectangle x1="0.25" y1="-0.85" x2="0.45" y2="-0.35" layer="51"/>
<rectangle x1="-0.275" y1="-0.575" x2="0.275" y2="-0.35" layer="51"/>
<rectangle x1="-0.275" y1="-0.65" x2="-0.175" y2="-0.55" layer="51"/>
<rectangle x1="0.175" y1="-0.65" x2="0.275" y2="-0.55" layer="51"/>
<rectangle x1="-0.381" y1="0.1397" x2="0.381" y2="0.2667" layer="21"/>
<polygon width="0.1524" layer="21">
<vertex x="0" y="0.1397"/>
<vertex x="-0.254" y="-0.1778"/>
<vertex x="0.254" y="-0.1778"/>
</polygon>
</package>
<package name="CHIPLED_0805_NOOUTLINE">
<wire x1="-0.35" y1="0.925" x2="0.35" y2="0.925" width="0.1016" layer="51" curve="162.394521"/>
<wire x1="-0.35" y1="-0.925" x2="0.35" y2="-0.925" width="0.1016" layer="51" curve="-162.394521"/>
<wire x1="0.575" y1="0.525" x2="0.575" y2="-0.525" width="0.1016" layer="51"/>
<wire x1="-0.575" y1="-0.5" x2="-0.575" y2="0.925" width="0.1016" layer="51"/>
<circle x="-0.45" y="0.85" radius="0.103" width="0.0762" layer="51"/>
<smd name="C" x="0" y="1.05" dx="1.2" dy="1.2" layer="1"/>
<smd name="A" x="0" y="-1.05" dx="1.2" dy="1.2" layer="1"/>
<text x="-1.016" y="-1.778" size="0.8128" layer="25" ratio="18" rot="R90">&gt;NAME</text>
<text x="1.397" y="-1.778" size="0.4064" layer="27" ratio="10" rot="R90">&gt;VALUE</text>
<text x="-0.1" y="-1.4" size="0.254" layer="51">A</text>
<text x="-0.1" y="1.2" size="0.254" layer="51">C</text>
<rectangle x1="0.3" y1="0.5" x2="0.625" y2="1" layer="51"/>
<rectangle x1="-0.325" y1="0.5" x2="-0.175" y2="0.75" layer="51"/>
<rectangle x1="0.175" y1="0.5" x2="0.325" y2="0.75" layer="51"/>
<rectangle x1="-0.2" y1="0.5" x2="0.2" y2="0.675" layer="51"/>
<rectangle x1="0.3" y1="-1" x2="0.625" y2="-0.5" layer="51"/>
<rectangle x1="-0.625" y1="-1" x2="-0.3" y2="-0.5" layer="51"/>
<rectangle x1="0.175" y1="-0.75" x2="0.325" y2="-0.5" layer="51"/>
<rectangle x1="-0.325" y1="-0.75" x2="-0.175" y2="-0.5" layer="51"/>
<rectangle x1="-0.2" y1="-0.675" x2="0.2" y2="-0.5" layer="51"/>
<rectangle x1="-0.6" y1="0.5" x2="-0.3" y2="0.762" layer="51"/>
<rectangle x1="-0.625" y1="0.925" x2="-0.3" y2="1" layer="51"/>
<rectangle x1="-0.4445" y1="0.1905" x2="0.4445" y2="0.381" layer="21"/>
<polygon width="0.1524" layer="21">
<vertex x="0" y="0.254"/>
<vertex x="-0.381" y="-0.254"/>
<vertex x="0.381" y="-0.254"/>
</polygon>
</package>
</packages>
<symbols>
<symbol name="NPN">
<wire x1="2.54" y1="2.54" x2="0.508" y2="1.524" width="0.1524" layer="94"/>
<wire x1="1.778" y1="-1.524" x2="2.54" y2="-2.54" width="0.1524" layer="94"/>
<wire x1="2.54" y1="-2.54" x2="1.27" y2="-2.54" width="0.1524" layer="94"/>
<wire x1="1.27" y1="-2.54" x2="1.778" y2="-1.524" width="0.1524" layer="94"/>
<wire x1="1.54" y1="-2.04" x2="0.308" y2="-1.424" width="0.1524" layer="94"/>
<wire x1="1.524" y1="-2.413" x2="2.286" y2="-2.413" width="0.254" layer="94"/>
<wire x1="2.286" y1="-2.413" x2="1.778" y2="-1.778" width="0.254" layer="94"/>
<wire x1="1.778" y1="-1.778" x2="1.524" y2="-2.286" width="0.254" layer="94"/>
<wire x1="1.524" y1="-2.286" x2="1.905" y2="-2.286" width="0.254" layer="94"/>
<wire x1="1.905" y1="-2.286" x2="1.778" y2="-2.032" width="0.254" layer="94"/>
<text x="-10.16" y="7.62" size="1.778" layer="95">&gt;NAME</text>
<text x="-10.16" y="5.08" size="1.778" layer="96">&gt;VALUE</text>
<rectangle x1="-0.254" y1="-2.54" x2="0.508" y2="2.54" layer="94"/>
<pin name="B" x="-2.54" y="0" visible="off" length="short" direction="pas" swaplevel="1"/>
<pin name="E" x="2.54" y="-5.08" visible="off" length="short" direction="pas" swaplevel="3" rot="R90"/>
<pin name="C" x="2.54" y="5.08" visible="off" length="short" direction="pas" swaplevel="2" rot="R270"/>
</symbol>
<symbol name="LED">
<wire x1="-2.54" y1="1.27" x2="-2.54" y2="-1.27" width="0.254" layer="94"/>
<wire x1="-2.54" y1="-1.27" x2="0" y2="0" width="0.254" layer="94"/>
<wire x1="0" y1="0" x2="-2.54" y2="1.27" width="0.254" layer="94"/>
<wire x1="0" y1="1.27" x2="0" y2="0" width="0.254" layer="94"/>
<wire x1="0" y1="0" x2="0" y2="-1.27" width="0.254" layer="94"/>
<wire x1="-0.635" y1="1.27" x2="0.635" y2="2.54" width="0.254" layer="94"/>
<wire x1="-1.905" y1="1.27" x2="-0.635" y2="2.54" width="0.254" layer="94"/>
<wire x1="-0.9525" y1="2.8575" x2="-0.3175" y2="2.2225" width="0.254" layer="94"/>
<wire x1="-0.3175" y1="2.2225" x2="0" y2="3.175" width="0.254" layer="94"/>
<wire x1="0" y1="3.175" x2="-0.9525" y2="2.8575" width="0.254" layer="94"/>
<wire x1="0.3175" y1="2.8575" x2="0.9525" y2="2.2225" width="0.254" layer="94"/>
<wire x1="1.27" y1="3.175" x2="0.3175" y2="2.8575" width="0.254" layer="94"/>
<wire x1="0.9525" y1="2.2225" x2="1.27" y2="3.175" width="0.254" layer="94"/>
<text x="-5.08" y="3.175" size="1.27" layer="95">&gt;NAME</text>
<text x="-5.08" y="-2.794" size="1.27" layer="96">&gt;VALUE</text>
<pin name="A" x="-5.08" y="0" visible="off" length="short" direction="pas"/>
<pin name="C" x="2.54" y="0" visible="off" length="short" direction="pas" rot="R180"/>
</symbol>
</symbols>
<devicesets>
<deviceset name="MMBTA13LT1G" prefix="U">
<gates>
<gate name="G$1" symbol="NPN" x="0" y="0"/>
</gates>
<devices>
<device name="" package="SOT23">
<connects>
<connect gate="G$1" pin="B" pad="1"/>
<connect gate="G$1" pin="C" pad="3"/>
<connect gate="G$1" pin="E" pad="2"/>
</connects>
<technologies>
<technology name=""/>
</technologies>
</device>
</devices>
</deviceset>
<deviceset name="LED" prefix="LED" uservalue="yes">
<description>&lt;p&gt;&lt;b&gt;LED&lt;/b&gt;&lt;/p&gt;
&lt;b&gt;0603&lt;/b&gt; - 0603 Surface Mount Package
&lt;hr&gt;
&lt;p&gt;&lt;b&gt;&lt;u&gt;2mA:&lt;/u&gt;&lt;/b&gt;&lt;/p&gt;
&lt;ul&gt;
&lt;li&gt;Green LED - Low Power (3.9mcd, 2ma, 1.7Vf) - Digikey: 475-2709-2-ND&lt;/li&gt;
&lt;li&gt;Orange LED - Low Power (9.8mcd, 2ma, 1.8Vf) - Digikey: 475-1194-2-ND&lt;/li&gt;
&lt;li&gt;Red LED - Low Power (5mcd, 2ma, 1.8Vf) - Digikey: 475-1195-2-ND&lt;/li&gt;
&lt;li&gt;Yellow LED - Low Power (7mcd, 2ma, 1.8Vf) - Digikey: 475-1196-2-ND&lt;/li&gt;
&lt;/ul&gt;
&lt;p&gt;&lt;b&gt;&lt;u&gt;5mA:&lt;/u&gt;&lt;/b&gt;&lt;/p&gt;
&lt;ul&gt;
&lt;li&gt;Blue LED - Low Power (17mcd, 5ma, 2.9Vf) - Digikey: LNJ937W8CRACT-ND&lt;/li&gt;
&lt;/ul&gt;
&lt;b&gt;0805&lt;/b&gt; - 0805 Surface Mount Package
&lt;hr&gt;
&lt;p&gt;&lt;b&gt;&lt;u&gt;2mA:&lt;/u&gt;&lt;/b&gt;&lt;/p&gt;
&lt;ul&gt;
&lt;li&gt;Red LED (8.8mcd, 2mA, 1.8Vf, Clear) - Low Power [Digikey: 475-2510-1-ND]&lt;/li&gt;
&lt;li&gt;Green LED (5mcd, 2mA, 1.8Vf, Clear) - Low Power [Digikey: 475-2730-1-ND]&lt;/li&gt;
&lt;li&gt;Yellow LED (11.3mcd, 2mA, 1.8Vf, Clear) - Low Power [Digikey: 475-2555-1-ND]&lt;/li&gt;
&lt;/ul&gt;
&lt;p&gt;&lt;b&gt;&lt;u&gt;20mA:&lt;/u&gt;&lt;/b&gt;&lt;/p&gt;
&lt;ul&gt;
&lt;li&gt;Red LED (104mcd, 20mA, Diffused) - LS R976 [Digikey: 475-1278-6-ND]&lt;/li&gt;
&lt;li&gt;Red LED (12mcd, 20mA, 2.0Vf, Clear) - APT2012EC [Digikey: 754-1128-1-ND]&lt;/li&gt;
&lt;li&gt;Green LED (15mcd, 20mA, 2.2Vf, Clear) - APT2012GC [Digikey: 754-1131-1-ND]&lt;/li&gt;
&lt;li&gt;Orange LED (160mcd, 20mA, 2.1Vf, Clear) - APT2012SECK [Digikey: 754-1130-1-ND]&lt;/li&gt;
&lt;/ul&gt;
&lt;li&gt;&lt;b&gt;1206&lt;/b&gt; - 1206 Surface Mount Package
&lt;hr&gt;
&lt;ul&gt;
&lt;li&gt;Green LED (26mcd, 20mA, Diffused) - LG N971  [Digikey: 475-1407-6-ND]&lt;/li&gt;
&lt;li&gt;Red LED (15mcd, 20mA, Diffused) - LH N974 [Digikey: 475-1416-6-ND]&lt;/li&gt;
&lt;/ul&gt;</description>
<gates>
<gate name="G$1" symbol="LED" x="0" y="0"/>
</gates>
<devices>
<device name="1206" package="CHIPLED_1206">
<connects>
<connect gate="G$1" pin="A" pad="A"/>
<connect gate="G$1" pin="C" pad="C"/>
</connects>
<technologies>
<technology name=""/>
</technologies>
</device>
<device name="0805" package="CHIPLED_0805">
<connects>
<connect gate="G$1" pin="A" pad="A"/>
<connect gate="G$1" pin="C" pad="C"/>
</connects>
<technologies>
<technology name=""/>
</technologies>
</device>
<device name="0603" package="CHIPLED_0603">
<connects>
<connect gate="G$1" pin="A" pad="A"/>
<connect gate="G$1" pin="C" pad="C"/>
</connects>
<technologies>
<technology name=""/>
</technologies>
</device>
<device name="0603_NOOUTLINE" package="CHIPLED_0603_NOOUTLINE">
<connects>
<connect gate="G$1" pin="A" pad="A"/>
<connect gate="G$1" pin="C" pad="C"/>
</connects>
<technologies>
<technology name=""/>
</technologies>
</device>
<device name="0805_NOOUTLINE" package="CHIPLED_0805_NOOUTLINE">
<connects>
<connect gate="G$1" pin="A" pad="A"/>
<connect gate="G$1" pin="C" pad="C"/>
</connects>
<technologies>
<technology name=""/>
</technologies>
</device>
</devices>
</deviceset>
</devicesets>
</library>
<library name="FUTUR3D_DWARF">
<packages>
<package name="0805">
<description>0805 (2012 Metric)</description>
<wire x1="-1.873" y1="0.883" x2="1.873" y2="0.883" width="0.0508" layer="39"/>
<wire x1="1.873" y1="-0.883" x2="-1.873" y2="-0.883" width="0.0508" layer="39"/>
<wire x1="-1.873" y1="-0.883" x2="-1.873" y2="0.883" width="0.0508" layer="39"/>
<wire x1="-0.381" y1="0.66" x2="0.381" y2="0.66" width="0.1016" layer="51"/>
<wire x1="-0.356" y1="-0.66" x2="0.381" y2="-0.66" width="0.1016" layer="51"/>
<wire x1="1.873" y1="0.883" x2="1.873" y2="-0.883" width="0.0508" layer="39"/>
<wire x1="1.8" y1="0.9" x2="1.8" y2="-0.9" width="0.2032" layer="21"/>
<wire x1="1.8" y1="-0.9" x2="-1.8" y2="-0.9" width="0.2032" layer="21"/>
<wire x1="-1.8" y1="-0.9" x2="-1.8" y2="0.9" width="0.2032" layer="21"/>
<wire x1="-1.8" y1="0.9" x2="1.8" y2="0.9" width="0.2032" layer="21"/>
<smd name="1" x="-0.95" y="0" dx="1.3" dy="1.5" layer="1"/>
<smd name="2" x="0.95" y="0" dx="1.3" dy="1.5" layer="1"/>
<text x="2.032" y="-0.127" size="0.8128" layer="25" ratio="18">&gt;NAME</text>
<text x="2.032" y="-0.762" size="0.4064" layer="27" ratio="10">&gt;VALUE</text>
<rectangle x1="-1.0922" y1="-0.7239" x2="-0.3421" y2="0.7262" layer="51"/>
<rectangle x1="0.3556" y1="-0.7239" x2="1.1057" y2="0.7262" layer="51"/>
<rectangle x1="-0.1001" y1="-0.4001" x2="0.1001" y2="0.4001" layer="35"/>
</package>
<package name="1206">
<description>1206 (3216 Metric)</description>
<wire x1="-2.473" y1="0.983" x2="2.473" y2="0.983" width="0.0508" layer="39"/>
<wire x1="2.473" y1="-0.983" x2="-2.473" y2="-0.983" width="0.0508" layer="39"/>
<wire x1="-2.473" y1="-0.983" x2="-2.473" y2="0.983" width="0.0508" layer="39"/>
<wire x1="2.473" y1="0.983" x2="2.473" y2="-0.983" width="0.0508" layer="39"/>
<wire x1="-0.965" y1="0.787" x2="0.965" y2="0.787" width="0.1016" layer="51"/>
<wire x1="-0.965" y1="-0.787" x2="0.965" y2="-0.787" width="0.1016" layer="51"/>
<wire x1="-2.4" y1="1" x2="2.4" y2="1" width="0.2032" layer="21"/>
<wire x1="2.4" y1="1" x2="2.4" y2="-1" width="0.2032" layer="21"/>
<wire x1="2.4" y1="-1" x2="-2.4" y2="-1" width="0.2032" layer="21"/>
<wire x1="-2.4" y1="-1" x2="-2.4" y2="1" width="0.2032" layer="21"/>
<smd name="1" x="-1.4" y="0" dx="1.6" dy="1.8" layer="1"/>
<smd name="2" x="1.4" y="0" dx="1.6" dy="1.8" layer="1"/>
<text x="2.54" y="-0.127" size="0.8128" layer="25" ratio="18">&gt;NAME</text>
<text x="2.54" y="-0.635" size="0.4064" layer="27" ratio="10">&gt;VALUE</text>
<rectangle x1="-1.7018" y1="-0.8509" x2="-0.9517" y2="0.8491" layer="51"/>
<rectangle x1="0.9517" y1="-0.8491" x2="1.7018" y2="0.8509" layer="51"/>
<rectangle x1="-0.1999" y1="-0.4001" x2="0.1999" y2="0.4001" layer="35"/>
</package>
<package name="0603">
<description>0603 (1608 Metric)</description>
<wire x1="-1.473" y1="0.729" x2="1.473" y2="0.729" width="0.0508" layer="39"/>
<wire x1="1.473" y1="0.729" x2="1.473" y2="-0.729" width="0.0508" layer="39"/>
<wire x1="1.473" y1="-0.729" x2="-1.473" y2="-0.729" width="0.0508" layer="39"/>
<wire x1="-1.473" y1="-0.729" x2="-1.473" y2="0.729" width="0.0508" layer="39"/>
<wire x1="-0.356" y1="0.432" x2="0.356" y2="0.432" width="0.1016" layer="51"/>
<wire x1="-0.356" y1="-0.419" x2="0.356" y2="-0.419" width="0.1016" layer="51"/>
<wire x1="-1.6" y1="0.7" x2="1.6" y2="0.7" width="0.2032" layer="21"/>
<wire x1="1.6" y1="0.7" x2="1.6" y2="-0.7" width="0.2032" layer="21"/>
<wire x1="1.6" y1="-0.7" x2="-1.6" y2="-0.7" width="0.2032" layer="21"/>
<wire x1="-1.6" y1="-0.7" x2="-1.6" y2="0.7" width="0.2032" layer="21"/>
<smd name="1" x="-0.85" y="0" dx="1.1" dy="1" layer="1"/>
<smd name="2" x="0.85" y="0" dx="1.1" dy="1" layer="1"/>
<text x="1.778" y="-0.127" size="0.8128" layer="25" font="vector" ratio="18">&gt;NAME</text>
<text x="1.778" y="-0.762" size="0.4064" layer="27" font="vector" ratio="10">&gt;VALUE</text>
<rectangle x1="-0.8382" y1="-0.4699" x2="-0.3381" y2="0.4801" layer="51"/>
<rectangle x1="0.3302" y1="-0.4699" x2="0.8303" y2="0.4801" layer="51"/>
<rectangle x1="-0.1999" y1="-0.3" x2="0.1999" y2="0.3" layer="35"/>
</package>
<package name="0402">
<description>&lt;b&gt;CAPACITOR&lt;/b&gt;&lt;p&gt;
chip</description>
<wire x1="-0.245" y1="0.224" x2="0.245" y2="0.224" width="0.2032" layer="51"/>
<wire x1="0.245" y1="-0.224" x2="-0.245" y2="-0.224" width="0.2032" layer="51"/>
<wire x1="-1.346" y1="0.483" x2="1.346" y2="0.483" width="0.0508" layer="39"/>
<wire x1="1.346" y1="0.483" x2="1.346" y2="-0.483" width="0.0508" layer="39"/>
<wire x1="1.346" y1="-0.483" x2="-1.346" y2="-0.483" width="0.0508" layer="39"/>
<wire x1="-1.346" y1="-0.483" x2="-1.346" y2="0.483" width="0.0508" layer="39"/>
<wire x1="-1.27" y1="-0.635" x2="-1.27" y2="0.635" width="0.2032" layer="21"/>
<wire x1="-1.27" y1="0.635" x2="1.27" y2="0.635" width="0.2032" layer="21"/>
<wire x1="1.27" y1="0.635" x2="1.27" y2="-0.635" width="0.2032" layer="21"/>
<wire x1="1.27" y1="-0.635" x2="-1.27" y2="-0.635" width="0.2032" layer="21"/>
<smd name="1" x="-0.65" y="0" dx="0.7" dy="0.9" layer="1"/>
<smd name="2" x="0.65" y="0" dx="0.7" dy="0.9" layer="1"/>
<text x="1.397" y="-0.1905" size="0.8128" layer="25" ratio="18">&gt;NAME</text>
<text x="1.397" y="-0.635" size="0.4064" layer="27" ratio="10">&gt;VALUE</text>
<rectangle x1="-0.554" y1="-0.3048" x2="-0.254" y2="0.2951" layer="51"/>
<rectangle x1="0.2588" y1="-0.3048" x2="0.5588" y2="0.2951" layer="51"/>
<rectangle x1="-0.1999" y1="-0.3" x2="0.1999" y2="0.3" layer="35"/>
</package>
<package name="0603-MINI">
<description>0603-Mini
&lt;p&gt;Mini footprint for dense boards&lt;/p&gt;</description>
<wire x1="-1.346" y1="0.583" x2="1.346" y2="0.583" width="0.0508" layer="39"/>
<wire x1="1.346" y1="0.583" x2="1.346" y2="-0.583" width="0.0508" layer="39"/>
<wire x1="1.346" y1="-0.583" x2="-1.346" y2="-0.583" width="0.0508" layer="39"/>
<wire x1="-1.346" y1="-0.583" x2="-1.346" y2="0.583" width="0.0508" layer="39"/>
<wire x1="-1.37" y1="-0.635" x2="-1.37" y2="0.635" width="0.2032" layer="21"/>
<wire x1="-1.37" y1="0.635" x2="1.37" y2="0.635" width="0.2032" layer="21"/>
<wire x1="1.37" y1="0.635" x2="1.37" y2="-0.635" width="0.2032" layer="21"/>
<wire x1="1.37" y1="-0.635" x2="-1.37" y2="-0.635" width="0.2032" layer="21"/>
<wire x1="-0.356" y1="0.432" x2="0.356" y2="0.432" width="0.1016" layer="51"/>
<wire x1="-0.356" y1="-0.419" x2="0.356" y2="-0.419" width="0.1016" layer="51"/>
<smd name="1" x="-0.75" y="0" dx="0.9" dy="0.9" layer="1"/>
<smd name="2" x="0.75" y="0" dx="0.9" dy="0.9" layer="1"/>
<text x="1.524" y="-0.0635" size="0.8128" layer="25" ratio="18">&gt;NAME</text>
<text x="1.524" y="-0.635" size="0.4064" layer="27" ratio="10">&gt;VALUE</text>
<rectangle x1="-0.8382" y1="-0.4699" x2="-0.3381" y2="0.4801" layer="51"/>
<rectangle x1="0.3302" y1="-0.4699" x2="0.8303" y2="0.4801" layer="51"/>
</package>
<package name="2012">
<wire x1="-1.662" y1="1.245" x2="1.662" y2="1.245" width="0.2032" layer="51"/>
<wire x1="-1.637" y1="-1.245" x2="1.687" y2="-1.245" width="0.2032" layer="51"/>
<wire x1="-3.473" y1="1.483" x2="3.473" y2="1.483" width="0.0508" layer="39"/>
<wire x1="3.473" y1="1.483" x2="3.473" y2="-1.483" width="0.0508" layer="39"/>
<wire x1="3.473" y1="-1.483" x2="-3.473" y2="-1.483" width="0.0508" layer="39"/>
<wire x1="-3.473" y1="-1.483" x2="-3.473" y2="1.483" width="0.0508" layer="39"/>
<wire x1="-3.302" y1="1.524" x2="3.302" y2="1.524" width="0.2032" layer="21"/>
<wire x1="3.302" y1="1.524" x2="3.302" y2="-1.524" width="0.2032" layer="21"/>
<wire x1="3.302" y1="-1.524" x2="-3.302" y2="-1.524" width="0.2032" layer="21"/>
<wire x1="-3.302" y1="-1.524" x2="-3.302" y2="1.524" width="0.2032" layer="21"/>
<smd name="1" x="-2.2" y="0" dx="1.8" dy="2.7" layer="1"/>
<smd name="2" x="2.2" y="0" dx="1.8" dy="2.7" layer="1"/>
<text x="-2.54" y="1.8415" size="0.8128" layer="25" ratio="18">&gt;NAME</text>
<text x="-2.667" y="-2.159" size="0.4064" layer="27" ratio="10">&gt;VALUE</text>
<rectangle x1="-2.4892" y1="-1.3208" x2="-1.6393" y2="1.3292" layer="51"/>
<rectangle x1="1.651" y1="-1.3208" x2="2.5009" y2="1.3292" layer="51"/>
</package>
<package name="0805_NOTHERMALS">
<wire x1="-1.873" y1="0.883" x2="1.873" y2="0.883" width="0.0508" layer="39"/>
<wire x1="1.873" y1="-0.883" x2="-1.873" y2="-0.883" width="0.0508" layer="39"/>
<wire x1="-1.873" y1="-0.883" x2="-1.873" y2="0.883" width="0.0508" layer="39"/>
<wire x1="-0.381" y1="0.66" x2="0.381" y2="0.66" width="0.1016" layer="51"/>
<wire x1="-0.356" y1="-0.66" x2="0.381" y2="-0.66" width="0.1016" layer="51"/>
<wire x1="1.873" y1="0.883" x2="1.873" y2="-0.883" width="0.0508" layer="39"/>
<wire x1="1.8" y1="0.9" x2="1.8" y2="-0.9" width="0.2032" layer="21"/>
<wire x1="1.8" y1="-0.9" x2="-1.8" y2="-0.9" width="0.2032" layer="21"/>
<wire x1="-1.8" y1="-0.9" x2="-1.8" y2="0.9" width="0.2032" layer="21"/>
<wire x1="-1.8" y1="0.9" x2="1.8" y2="0.9" width="0.2032" layer="21"/>
<smd name="1" x="-0.95" y="0" dx="1.3" dy="1.5" layer="1" thermals="no"/>
<smd name="2" x="0.95" y="0" dx="1.3" dy="1.5" layer="1" thermals="no"/>
<text x="2.032" y="-0.127" size="0.8128" layer="25" ratio="18">&gt;NAME</text>
<text x="2.032" y="-0.762" size="0.4064" layer="27" ratio="10">&gt;VALUE</text>
<rectangle x1="-1.0922" y1="-0.7239" x2="-0.3421" y2="0.7262" layer="51"/>
<rectangle x1="0.3556" y1="-0.7239" x2="1.1057" y2="0.7262" layer="51"/>
</package>
<package name="2512">
<description>&lt;b&gt;RESISTOR 2512 (Metric 6432)&lt;/b&gt;</description>
<wire x1="-2.362" y1="1.473" x2="2.387" y2="1.473" width="0.2032" layer="51"/>
<wire x1="-2.362" y1="-1.473" x2="2.387" y2="-1.473" width="0.2032" layer="51"/>
<wire x1="-3.973" y1="1.983" x2="3.973" y2="1.983" width="0.0508" layer="39"/>
<wire x1="3.973" y1="1.983" x2="3.973" y2="-1.983" width="0.0508" layer="39"/>
<wire x1="3.973" y1="-1.983" x2="-3.973" y2="-1.983" width="0.0508" layer="39"/>
<wire x1="-3.973" y1="-1.983" x2="-3.973" y2="1.983" width="0.0508" layer="39"/>
<smd name="1" x="-2.8" y="0" dx="1.8" dy="3.2" layer="1"/>
<smd name="2" x="2.8" y="0" dx="1.8" dy="3.2" layer="1"/>
<text x="-3.683" y="1.905" size="0.8128" layer="25" ratio="18">&gt;NAME</text>
<text x="-3.556" y="-2.286" size="0.4064" layer="27" ratio="10">&gt;VALUE</text>
<rectangle x1="-3.2004" y1="-1.5494" x2="-2.3505" y2="1.5507" layer="51"/>
<rectangle x1="2.3622" y1="-1.5494" x2="3.2121" y2="1.5507" layer="51"/>
<rectangle x1="-0.5001" y1="-1" x2="0.5001" y2="1" layer="35"/>
</package>
<package name="_0402">
<description>&lt;b&gt; 0402&lt;/b&gt;</description>
<wire x1="-0.245" y1="0.174" x2="0.245" y2="0.174" width="0.1016" layer="51"/>
<wire x1="0.245" y1="-0.174" x2="-0.245" y2="-0.174" width="0.1016" layer="51"/>
<wire x1="-1.0573" y1="0.5557" x2="1.0573" y2="0.5557" width="0.2032" layer="21"/>
<wire x1="1.0573" y1="0.5557" x2="1.0573" y2="-0.5556" width="0.2032" layer="21"/>
<wire x1="1.0573" y1="-0.5556" x2="-1.0573" y2="-0.5557" width="0.2032" layer="21"/>
<wire x1="-1.0573" y1="-0.5557" x2="-1.0573" y2="0.5557" width="0.2032" layer="21"/>
<smd name="1" x="-0.508" y="0" dx="0.6" dy="0.6" layer="1"/>
<smd name="2" x="0.508" y="0" dx="0.6" dy="0.6" layer="1"/>
<text x="-0.9525" y="0.7939" size="0.8128" layer="25" ratio="18">&gt;NAME</text>
<text x="-0.9525" y="-1.3336" size="0.4064" layer="27" ratio="10">&gt;VALUE</text>
<rectangle x1="-0.0794" y1="-0.2381" x2="0.0794" y2="0.2381" layer="35"/>
<rectangle x1="0.25" y1="-0.25" x2="0.5" y2="0.25" layer="51"/>
<rectangle x1="-0.5" y1="-0.25" x2="-0.25" y2="0.25" layer="51"/>
</package>
<package name="_0402MP">
<description>&lt;b&gt;0402 MicroPitch&lt;p&gt;</description>
<wire x1="-0.245" y1="0.174" x2="0.245" y2="0.174" width="0.1016" layer="51"/>
<wire x1="0.245" y1="-0.174" x2="-0.245" y2="-0.174" width="0.1016" layer="51"/>
<wire x1="0" y1="0.127" x2="0" y2="-0.127" width="0.2032" layer="21"/>
<smd name="1" x="-0.508" y="0" dx="0.5" dy="0.5" layer="1"/>
<smd name="2" x="0.508" y="0" dx="0.5" dy="0.5" layer="1"/>
<text x="-0.635" y="0.4763" size="0.6096" layer="25" ratio="18">&gt;NAME</text>
<text x="-0.635" y="-0.7938" size="0.4064" layer="27" ratio="10">&gt;VALUE</text>
<rectangle x1="-0.1" y1="-0.2" x2="0.1" y2="0.2" layer="35"/>
<rectangle x1="-0.5" y1="-0.25" x2="-0.254" y2="0.25" layer="51"/>
<rectangle x1="0.2588" y1="-0.25" x2="0.5" y2="0.25" layer="51"/>
</package>
<package name="_0603">
<description>&lt;b&gt;0603&lt;/b&gt;</description>
<wire x1="-0.432" y1="-0.306" x2="0.432" y2="-0.306" width="0.1016" layer="51"/>
<wire x1="0.432" y1="0.306" x2="-0.432" y2="0.306" width="0.1016" layer="51"/>
<wire x1="-1.4605" y1="0.635" x2="1.4605" y2="0.635" width="0.2032" layer="21"/>
<wire x1="1.4605" y1="0.635" x2="1.4605" y2="-0.635" width="0.2032" layer="21"/>
<wire x1="1.4605" y1="-0.635" x2="-1.4605" y2="-0.635" width="0.2032" layer="21"/>
<wire x1="-1.4605" y1="-0.635" x2="-1.4605" y2="0.635" width="0.2032" layer="21"/>
<smd name="1" x="-0.762" y="0" dx="0.9" dy="0.8" layer="1"/>
<smd name="2" x="0.762" y="0" dx="0.9" dy="0.8" layer="1"/>
<text x="-1.27" y="0.9525" size="0.8128" layer="25" ratio="18">&gt;NAME</text>
<text x="-1.27" y="-1.4923" size="0.4064" layer="27" ratio="10">&gt;VALUE</text>
<rectangle x1="0.4318" y1="-0.4" x2="0.8382" y2="0.4" layer="51"/>
<rectangle x1="-0.8382" y1="-0.4" x2="-0.4318" y2="0.4" layer="51"/>
<rectangle x1="-0.1999" y1="-0.4001" x2="0.1999" y2="0.4001" layer="35"/>
</package>
<package name="_0603MP">
<description>&lt;b&gt;0603 MicroPitch&lt;/b&gt;</description>
<wire x1="-0.432" y1="-0.306" x2="0.432" y2="-0.306" width="0.1016" layer="51"/>
<wire x1="0.432" y1="0.306" x2="-0.432" y2="0.306" width="0.1016" layer="51"/>
<wire x1="0" y1="0.254" x2="0" y2="-0.254" width="0.2032" layer="21"/>
<smd name="1" x="-0.762" y="0" dx="0.8" dy="0.8" layer="1"/>
<smd name="2" x="0.762" y="0" dx="0.8" dy="0.8" layer="1"/>
<text x="-0.9525" y="0.635" size="0.8128" layer="25" ratio="18">&gt;NAME</text>
<text x="-0.9525" y="-0.9525" size="0.4064" layer="27" ratio="10">&gt;VALUE</text>
<rectangle x1="0.4318" y1="-0.4" x2="0.8" y2="0.4" layer="51"/>
<rectangle x1="-0.8" y1="-0.4" x2="-0.4318" y2="0.4" layer="51"/>
<rectangle x1="-0.1999" y1="-0.25" x2="0.1999" y2="0.25" layer="35"/>
</package>
<package name="_0805">
<description>&lt;b&gt;0805&lt;/b&gt;</description>
<wire x1="-0.41" y1="0.585" x2="0.41" y2="0.585" width="0.1016" layer="51"/>
<wire x1="-0.41" y1="-0.585" x2="0.41" y2="-0.585" width="0.1016" layer="51"/>
<wire x1="-1.905" y1="0.889" x2="1.905" y2="0.889" width="0.2032" layer="21"/>
<wire x1="1.905" y1="0.889" x2="1.905" y2="-0.889" width="0.2032" layer="21"/>
<wire x1="1.905" y1="-0.889" x2="-1.905" y2="-0.889" width="0.2032" layer="21"/>
<wire x1="-1.905" y1="-0.889" x2="-1.905" y2="0.889" width="0.2032" layer="21"/>
<smd name="1" x="-1.016" y="0" dx="1.2" dy="1.3" layer="1"/>
<smd name="2" x="1.016" y="0" dx="1.2" dy="1.3" layer="1"/>
<text x="-1.5875" y="1.27" size="0.8128" layer="25" ratio="18">&gt;NAME</text>
<text x="-1.5874" y="-1.651" size="0.4064" layer="27" ratio="10">&gt;VALUE</text>
<rectangle x1="0.4064" y1="-0.65" x2="1.0564" y2="0.65" layer="51"/>
<rectangle x1="-1.0668" y1="-0.65" x2="-0.4168" y2="0.65" layer="51"/>
<rectangle x1="-0.1999" y1="-0.5001" x2="0.1999" y2="0.5001" layer="35"/>
</package>
<package name="_0805MP">
<description>&lt;b&gt;0805 MicroPitch&lt;/b&gt;</description>
<wire x1="-0.51" y1="0.535" x2="0.51" y2="0.535" width="0.1016" layer="51"/>
<wire x1="-0.51" y1="-0.535" x2="0.51" y2="-0.535" width="0.1016" layer="51"/>
<wire x1="0" y1="0.508" x2="0" y2="-0.508" width="0.2032" layer="21"/>
<smd name="1" x="-1.016" y="0" dx="1.2" dy="1.3" layer="1"/>
<smd name="2" x="1.016" y="0" dx="1.2" dy="1.3" layer="1"/>
<text x="-1.5875" y="0.9525" size="0.8128" layer="25" ratio="18">&gt;NAME</text>
<text x="-1.5875" y="-1.27" size="0.4064" layer="27" ratio="10">&gt;VALUE</text>
<rectangle x1="0.4064" y1="-0.65" x2="1" y2="0.65" layer="51"/>
<rectangle x1="-1" y1="-0.65" x2="-0.4168" y2="0.65" layer="51"/>
<rectangle x1="-0.1999" y1="-0.5001" x2="0.1999" y2="0.5001" layer="35"/>
</package>
<package name="1X03_OVAL">
<description>&lt;b&gt;PIN HEADER&lt;/b&gt;</description>
<wire x1="-3.81" y1="0.635" x2="-3.81" y2="-0.635" width="0.2032" layer="51"/>
<pad name="1" x="-2.54" y="0" drill="1" shape="long" rot="R90"/>
<pad name="2" x="0" y="0" drill="1" shape="long" rot="R90"/>
<pad name="3" x="2.54" y="0" drill="1" shape="long" rot="R90"/>
<rectangle x1="-0.254" y1="-0.254" x2="0.254" y2="0.254" layer="51"/>
<rectangle x1="-2.794" y1="-0.254" x2="-2.286" y2="0.254" layer="51"/>
<rectangle x1="2.286" y1="-0.254" x2="2.794" y2="0.254" layer="51"/>
</package>
<package name="1X03_ROUND">
<wire x1="-3.81" y1="0.635" x2="-3.81" y2="-0.635" width="0.2032" layer="51"/>
<pad name="1" x="-2.54" y="0" drill="1" diameter="1.6764" rot="R90"/>
<pad name="2" x="0" y="0" drill="1" diameter="1.6764" rot="R90"/>
<pad name="3" x="2.54" y="0" drill="1" diameter="1.6764" rot="R90"/>
<text x="-3.8862" y="1.8288" size="0.8128" layer="25" ratio="18">&gt;NAME</text>
<text x="-3.81" y="-3.175" size="0.4064" layer="27" ratio="10">&gt;VALUE</text>
<rectangle x1="-0.254" y1="-0.254" x2="0.254" y2="0.254" layer="51"/>
<rectangle x1="-2.794" y1="-0.254" x2="-2.286" y2="0.254" layer="51"/>
<rectangle x1="2.286" y1="-0.254" x2="2.794" y2="0.254" layer="51"/>
</package>
<package name="1X03_SMT">
<description>&lt;p&gt;&lt;b&gt;Pin Headers&lt;/b&gt;&lt;br/&gt;
2 Pin, 0.1"/2.54mm pitch, SMT&lt;/p&gt;</description>
<wire x1="-3.81" y1="0.635" x2="-3.81" y2="-0.635" width="0.2032" layer="51"/>
<smd name="1" x="-2.54" y="1.27" dx="1" dy="3.5" layer="1"/>
<smd name="2" x="0" y="-1.27" dx="1" dy="3.5" layer="1"/>
<smd name="3" x="2.54" y="1.27" dx="1" dy="3.5" layer="1"/>
<text x="-3.8862" y="3.25" size="0.8128" layer="25" ratio="18">&gt;NAME</text>
<text x="-3.81" y="-4.5" size="0.4064" layer="27" ratio="10">&gt;VALUE</text>
</package>
<package name="1X03_1.0MM">
<wire x1="-1.762" y1="1.127" x2="-1.762" y2="-1.159" width="0.2032" layer="21"/>
<smd name="1" x="-1" y="0" dx="0.5" dy="2.5" layer="1"/>
<smd name="2" x="0" y="0" dx="0.5" dy="2.5" layer="1"/>
<smd name="3" x="1" y="0" dx="0.5" dy="2.5" layer="1"/>
<text x="-1.3462" y="1.726" size="0.8128" layer="25" ratio="18">&gt;NAME</text>
<text x="-1.27" y="-3.224" size="0.4064" layer="27" ratio="10">&gt;VALUE</text>
</package>
<package name="1X03_ROUND_76">
<wire x1="-3.81" y1="0.635" x2="-3.81" y2="-0.635" width="0.2032" layer="51"/>
<pad name="1" x="-2.54" y="0" drill="1" diameter="1.9304" rot="R90"/>
<pad name="2" x="0" y="0" drill="1" diameter="1.9304" rot="R90"/>
<pad name="3" x="2.54" y="0" drill="1" diameter="1.9304" rot="R90"/>
<text x="-3.8862" y="1.8288" size="0.8128" layer="25" ratio="18">&gt;NAME</text>
<text x="-3.81" y="-3.175" size="0.4064" layer="27" ratio="10">&gt;VALUE</text>
<rectangle x1="-0.254" y1="-0.254" x2="0.254" y2="0.254" layer="51"/>
<rectangle x1="-2.794" y1="-0.254" x2="-2.286" y2="0.254" layer="51"/>
<rectangle x1="2.286" y1="-0.254" x2="2.794" y2="0.254" layer="51"/>
</package>
</packages>
<symbols>
<symbol name="RESISTOR">
<wire x1="-2.54" y1="1.27" x2="2.54" y2="1.27" width="0.254" layer="94"/>
<wire x1="2.54" y1="1.27" x2="2.54" y2="-1.27" width="0.254" layer="94"/>
<wire x1="2.54" y1="-1.27" x2="-2.54" y2="-1.27" width="0.254" layer="94"/>
<wire x1="-2.54" y1="-1.27" x2="-2.54" y2="1.27" width="0.254" layer="94"/>
<text x="-2.54" y="2.032" size="1.27" layer="95" font="vector">&gt;NAME</text>
<text x="-2.54" y="-3.175" size="1.27" layer="96" font="vector">&gt;VALUE</text>
<pin name="1" x="-5.08" y="0" visible="off" length="short" direction="pas" swaplevel="1"/>
<pin name="2" x="5.08" y="0" visible="off" length="short" direction="pas" swaplevel="1" rot="R180"/>
</symbol>
<symbol name="PINHD3">
<wire x1="-6.35" y1="-5.08" x2="1.27" y2="-5.08" width="0.4064" layer="94"/>
<wire x1="1.27" y1="-5.08" x2="1.27" y2="5.08" width="0.4064" layer="94"/>
<wire x1="1.27" y1="5.08" x2="-6.35" y2="5.08" width="0.4064" layer="94"/>
<wire x1="-6.35" y1="5.08" x2="-6.35" y2="-5.08" width="0.4064" layer="94"/>
<text x="-6.35" y="5.715" size="1.778" layer="95">&gt;NAME</text>
<text x="-6.35" y="-7.62" size="1.778" layer="96">&gt;VALUE</text>
<pin name="1" x="-2.54" y="2.54" visible="pad" length="short" direction="pas" function="dot"/>
<pin name="2" x="-2.54" y="0" visible="pad" length="short" direction="pas" function="dot"/>
<pin name="3" x="-2.54" y="-2.54" visible="pad" length="short" direction="pas" function="dot"/>
</symbol>
</symbols>
<devicesets>
<deviceset name="RESISTOR" prefix="R" uservalue="yes">
<description>&lt;p&gt;&lt;b&gt;Resistors&lt;/b&gt;&lt;/p&gt;
&lt;b&gt;0402&lt;/b&gt; - 0402 Surface Mount Package
&lt;ul&gt;
&lt;li&gt;22 Ohm 1% 1/16W [Digikey: 311-22.0LRTR-ND]&lt;/li&gt;
&lt;li&gt;33 Ohm 5% 1/16W&lt;/li&gt;
&lt;li&gt;1.0K 5% 1/16W&lt;/li&gt;
&lt;li&gt;1.5K 5% 1/16W&lt;/li&gt;
&lt;li&gt;2.0K 1% 1/16W&lt;/li&gt;
&lt;li&gt;10.0K 1% 1/16W [Digikey: 311-10.0KLRTR-ND]&lt;/li&gt;
&lt;li&gt;10.0K 5% 1/16W [Digikey: RMCF0402JT10K0TR-ND]&lt;/li&gt;
&lt;li&gt;12.1K 1% 1/16W [Digikey: 311-22.0LRTR-ND]&lt;/li&gt;
&lt;li&gt;100.0K 5% 1/16W&lt;/li&gt;
&lt;/ul&gt;
&lt;b&gt;0603&lt;/b&gt; - 0603 Surface Mount Package&lt;br&gt;
&lt;ul&gt;
&lt;li&gt;0 Ohm 1/10 Watt 1% Resistor&lt;/li&gt;
&lt;li&gt;15 Ohm 1/10 Watt 1% Resistor&lt;/li&gt;
&lt;li&gt;33 Ohm 1/10 Watt 1% Resistor&lt;/li&gt;
&lt;li&gt;49.9 Ohm 1/10 Watt 1% Resistor&lt;/li&gt;
&lt;li&gt;100 Ohm 1/10 Watt 1% Resistor&lt;/li&gt;
&lt;li&gt;150 Ohm 1/10 Watt 1% Resistor&lt;/li&gt;
&lt;li&gt;240 Ohm 1/10 Watt 1% Resistor&lt;/li&gt;
&lt;li&gt;390 Ohm 1/10 Watt 1% Resistor&lt;/li&gt;
&lt;li&gt;560 Ohm 1/10 Watt 1% Resistor&lt;/li&gt;
&lt;li&gt;680 Ohm 1/10 Watt 1% Resistor&lt;/li&gt;
&lt;li&gt;750 Ohm 1/10 Watt 1% Resistor&lt;/li&gt;
&lt;li&gt;1.0K Ohm 1/10 Watt 1% Resistor&lt;/li&gt;
&lt;li&gt;1.5K Ohm 1/10 Watt 1% Resistor&lt;/li&gt;
&lt;li&gt;2.0K Ohm 1/10 Watt 1% Resistor&lt;/li&gt;
&lt;li&gt;2.2K Ohm 1/10 Watt 1% Resistor&lt;/li&gt;
&lt;li&gt;3.3K Ohm 1/10 Watt 1% Resistor&lt;/li&gt;
&lt;li&gt;4.7K Ohm 1/10 Watt 1% Resistor&lt;/li&gt;
&lt;li&gt;10.0K Ohm 1/10 Watt 1% Resistor&lt;/li&gt;
&lt;li&gt;12.0K Ohm 1/10 Watt 1% Resistor&lt;/li&gt;
&lt;li&gt;12.1K Ohm 1/10 Watt 1% Resistor&lt;/li&gt;
&lt;li&gt;20.0K Ohm 1/10 Watt 1% Resistor&lt;/li&gt;
&lt;li&gt;33.0K Ohm 1/10 Watt 1% Resistor&lt;/li&gt;
&lt;li&gt;100.0K Ohm 1/10 Watt 1% Resistor&lt;/li&gt;
&lt;/ul&gt;
&lt;b&gt;0805&lt;/b&gt; - 0805 Surface Mount Package
&lt;ul&gt;
&lt;li&gt;0 Ohm 1/8 Watt 1% Resistor&lt;/li&gt;
&lt;li&gt;33 Ohm 1/8 Watt 1% Resistor&lt;/li&gt;
&lt;li&gt;100 Ohm 1/8 Watt 1% Resistor&lt;/li&gt;
&lt;li&gt;150 Ohm 1/8 Watt 1% Resistor&lt;/li&gt;
&lt;li&gt;200 Ohm 1/8 Watt 1% Resistor&lt;/li&gt;
&lt;li&gt;240 Ohm 1/8 Watt 1% Resistor&lt;/li&gt;
&lt;li&gt;330 Ohm 1/8 Watt 1% Resistor&lt;/li&gt;
&lt;li&gt;390 Ohm 1/8 Watt 1% Resistor&lt;/li&gt;
&lt;li&gt;470 Ohm 1/8 Watt 1% Resistor&lt;/li&gt;
&lt;li&gt;1.0K Ohm 1/8 Watt 1% Resistor&lt;/li&gt;
&lt;li&gt;1.5K Ohm 1/8 Watt 1% Resistor&lt;/li&gt;
&lt;li&gt;2.0K Ohm 1/8 Watt 1% Resistor&lt;/li&gt;
&lt;li&gt;4.7K Ohm 1/8 Watt 1% Resistor&lt;/li&gt;
&lt;li&gt;5.1K Ohm 1/8 Watt 1% Resistor&lt;/li&gt;
&lt;li&gt;5.6K Ohm 1/8 Watt 1% Resistor&lt;/li&gt;
&lt;li&gt;10.0K Ohm 1/8 Watt 1% Resistor&lt;/li&gt;
&lt;li&gt;22.0K Ohm 1/8 Watt 1% Resistor&lt;/li&gt;
&lt;li&gt;33.0K Ohm 1/8 Watt 1% Resistor&lt;/li&gt;
&lt;li&gt;100K Ohm 1/8 Watt 1% Resistor&lt;/li&gt;
&lt;/ul&gt;
&lt;b&gt;1206&lt;/b&gt; - 1206 Surface Mount Package&lt;br/&gt;
&lt;br/&gt;
&lt;b&gt;2012&lt;/b&gt; - 2010 Surface Mount Package&lt;br/&gt;
&lt;ul&gt;&lt;li&gt;0.11 Ohm 1/2 Watt 1% Resistor - Digikey: RHM.11UCT-ND&lt;/li&gt;&lt;/ul&gt;</description>
<gates>
<gate name="G$1" symbol="RESISTOR" x="0" y="0"/>
</gates>
<devices>
<device name="0805" package="0805">
<connects>
<connect gate="G$1" pin="1" pad="1"/>
<connect gate="G$1" pin="2" pad="2"/>
</connects>
<technologies>
<technology name=""/>
</technologies>
</device>
<device name="1206" package="1206">
<connects>
<connect gate="G$1" pin="1" pad="1"/>
<connect gate="G$1" pin="2" pad="2"/>
</connects>
<technologies>
<technology name=""/>
</technologies>
</device>
<device name="0603" package="0603">
<connects>
<connect gate="G$1" pin="1" pad="1"/>
<connect gate="G$1" pin="2" pad="2"/>
</connects>
<technologies>
<technology name=""/>
</technologies>
</device>
<device name="0402" package="0402">
<connects>
<connect gate="G$1" pin="1" pad="1"/>
<connect gate="G$1" pin="2" pad="2"/>
</connects>
<technologies>
<technology name=""/>
</technologies>
</device>
<device name="0603MINI" package="0603-MINI">
<connects>
<connect gate="G$1" pin="1" pad="1"/>
<connect gate="G$1" pin="2" pad="2"/>
</connects>
<technologies>
<technology name=""/>
</technologies>
</device>
<device name="2012" package="2012">
<connects>
<connect gate="G$1" pin="1" pad="1"/>
<connect gate="G$1" pin="2" pad="2"/>
</connects>
<technologies>
<technology name=""/>
</technologies>
</device>
<device name="0805_NOTHERMALS" package="0805_NOTHERMALS">
<connects>
<connect gate="G$1" pin="1" pad="1"/>
<connect gate="G$1" pin="2" pad="2"/>
</connects>
<technologies>
<technology name=""/>
</technologies>
</device>
<device name="2512" package="2512">
<connects>
<connect gate="G$1" pin="1" pad="1"/>
<connect gate="G$1" pin="2" pad="2"/>
</connects>
<technologies>
<technology name=""/>
</technologies>
</device>
<device name="_0402" package="_0402">
<connects>
<connect gate="G$1" pin="1" pad="1"/>
<connect gate="G$1" pin="2" pad="2"/>
</connects>
<technologies>
<technology name=""/>
</technologies>
</device>
<device name="_0402MP" package="_0402MP">
<connects>
<connect gate="G$1" pin="1" pad="1"/>
<connect gate="G$1" pin="2" pad="2"/>
</connects>
<technologies>
<technology name=""/>
</technologies>
</device>
<device name="_0603" package="_0603">
<connects>
<connect gate="G$1" pin="1" pad="1"/>
<connect gate="G$1" pin="2" pad="2"/>
</connects>
<technologies>
<technology name=""/>
</technologies>
</device>
<device name="_0603MP" package="_0603MP">
<connects>
<connect gate="G$1" pin="1" pad="1"/>
<connect gate="G$1" pin="2" pad="2"/>
</connects>
<technologies>
<technology name=""/>
</technologies>
</device>
<device name="_0805" package="_0805">
<connects>
<connect gate="G$1" pin="1" pad="1"/>
<connect gate="G$1" pin="2" pad="2"/>
</connects>
<technologies>
<technology name=""/>
</technologies>
</device>
<device name="_0805MP" package="_0805MP">
<connects>
<connect gate="G$1" pin="1" pad="1"/>
<connect gate="G$1" pin="2" pad="2"/>
</connects>
<technologies>
<technology name=""/>
</technologies>
</device>
</devices>
</deviceset>
<deviceset name="HEADER-1X3" prefix="JP" uservalue="yes">
<description>&lt;b&gt;PIN HEADER&lt;/b&gt;</description>
<gates>
<gate name="A" symbol="PINHD3" x="0" y="0"/>
</gates>
<devices>
<device name="" package="1X03_OVAL">
<connects>
<connect gate="A" pin="1" pad="1"/>
<connect gate="A" pin="2" pad="2"/>
<connect gate="A" pin="3" pad="3"/>
</connects>
<technologies>
<technology name=""/>
</technologies>
</device>
<device name="ROUND" package="1X03_ROUND">
<connects>
<connect gate="A" pin="1" pad="1"/>
<connect gate="A" pin="2" pad="2"/>
<connect gate="A" pin="3" pad="3"/>
</connects>
<technologies>
<technology name=""/>
</technologies>
</device>
<device name="SMT" package="1X03_SMT">
<connects>
<connect gate="A" pin="1" pad="1"/>
<connect gate="A" pin="2" pad="2"/>
<connect gate="A" pin="3" pad="3"/>
</connects>
<technologies>
<technology name=""/>
</technologies>
</device>
<device name="1MMPADS" package="1X03_1.0MM">
<connects>
<connect gate="A" pin="1" pad="1"/>
<connect gate="A" pin="2" pad="2"/>
<connect gate="A" pin="3" pad="3"/>
</connects>
<technologies>
<technology name=""/>
</technologies>
</device>
<device name="76MIL" package="1X03_ROUND_76">
<connects>
<connect gate="A" pin="1" pad="1"/>
<connect gate="A" pin="2" pad="2"/>
<connect gate="A" pin="3" pad="3"/>
</connects>
<technologies>
<technology name=""/>
</technologies>
</device>
</devices>
</deviceset>
</devicesets>
</library>
<library name="#PaJa_31">
<description>&lt;B&gt;PaJa 31&lt;/B&gt; - knihovna   &amp;nbsp; &amp;nbsp; &amp;nbsp; &amp;nbsp; &amp;nbsp; &amp;nbsp; 
&lt;I&gt;(vytvoreno 1.1.2014)&lt;/I&gt;&lt;BR&gt;
Univerzální knihovna soucastek do Eagle &lt;I&gt;(od verze 5.6)&lt;/I&gt;&lt;BR&gt;
&lt;BR&gt;
Knihovna obsahuje: 215 soucastek na DPS, 330 do SCHematu&lt;BR&gt;
&lt;BR&gt;
&lt;Author&gt;Copyright (C) PaJa 2001-2014&lt;BR&gt;
www.paja-trb.cz&lt;BR&gt;
paja@paja-trb.cz
&lt;/author&gt;</description>
<packages>
</packages>
<symbols>
<symbol name="GND">
<wire x1="-1.7463" y1="-0.0001" x2="1.7463" y2="-0.0001" width="0.6096" layer="94"/>
<text x="-1.1113" y="0.3175" size="0.254" layer="100">PaJa</text>
<pin name="GND" x="0" y="2.54" visible="off" length="short" direction="sup" rot="R270"/>
</symbol>
</symbols>
<devicesets>
<deviceset name="GND" prefix="GND">
<description>&lt;B&gt;SCH symbol&lt;/B&gt; - zem - &lt;I&gt;GrouND&lt;/I&gt;</description>
<gates>
<gate name="ZEM" symbol="GND" x="-45.72" y="35.56"/>
</gates>
<devices>
<device name="">
<technologies>
<technology name=""/>
</technologies>
</device>
</devices>
</deviceset>
</devicesets>
</library>
</libraries>
<attributes>
</attributes>
<variantdefs>
</variantdefs>
<classes>
<class number="0" name="default" width="0" drill="0">
</class>
</classes>
<parts>
<part name="U1" library="mb2j_components" deviceset="MMBTA13LT1G" device=""/>
<part name="LED1" library="mb2j_components" deviceset="LED" device="1206"/>
<part name="R2" library="FUTUR3D_DWARF" deviceset="RESISTOR" device="1206" value="4k7"/>
<part name="R3" library="FUTUR3D_DWARF" deviceset="RESISTOR" device="1206" value="10k"/>
<part name="GND1" library="#PaJa_31" deviceset="GND" device=""/>
<part name="JP1" library="FUTUR3D_DWARF" deviceset="HEADER-1X3" device=""/>
<part name="R4" library="FUTUR3D_DWARF" deviceset="RESISTOR" device="1206" value="150"/>
</parts>
<sheets>
<sheet>
<plain>
</plain>
<instances>
<instance part="U1" gate="G$1" x="45.72" y="50.8"/>
<instance part="LED1" gate="G$1" x="48.26" y="60.96" rot="R270"/>
<instance part="R2" gate="G$1" x="38.1" y="50.8" rot="R180"/>
<instance part="R3" gate="G$1" x="27.94" y="45.72" rot="R270"/>
<instance part="GND1" gate="ZEM" x="48.26" y="35.56"/>
<instance part="JP1" gate="A" x="10.16" y="50.8" rot="R180"/>
<instance part="R4" gate="G$1" x="48.26" y="71.12" rot="R90"/>
</instances>
<busses>
</busses>
<nets>
<net name="N$2" class="0">
<segment>
<pinref part="U1" gate="G$1" pin="B"/>
<pinref part="R2" gate="G$1" pin="1"/>
</segment>
</net>
<net name="N$3" class="0">
<segment>
<pinref part="R3" gate="G$1" pin="1"/>
<pinref part="R2" gate="G$1" pin="2"/>
<wire x1="27.94" y1="50.8" x2="33.02" y2="50.8" width="0.1524" layer="91"/>
<pinref part="JP1" gate="A" pin="2"/>
<wire x1="12.7" y1="50.8" x2="27.94" y2="50.8" width="0.1524" layer="91"/>
<junction x="27.94" y="50.8"/>
</segment>
</net>
<net name="GND" class="0">
<segment>
<pinref part="R3" gate="G$1" pin="2"/>
<pinref part="U1" gate="G$1" pin="E"/>
<wire x1="27.94" y1="40.64" x2="48.26" y2="40.64" width="0.1524" layer="91"/>
<wire x1="48.26" y1="40.64" x2="48.26" y2="45.72" width="0.1524" layer="91"/>
<pinref part="GND1" gate="ZEM" pin="GND"/>
<wire x1="48.26" y1="38.1" x2="48.26" y2="40.64" width="0.1524" layer="91"/>
<junction x="48.26" y="40.64"/>
<pinref part="JP1" gate="A" pin="1"/>
<wire x1="12.7" y1="48.26" x2="22.86" y2="48.26" width="0.1524" layer="91"/>
<wire x1="22.86" y1="48.26" x2="22.86" y2="40.64" width="0.1524" layer="91"/>
<wire x1="22.86" y1="40.64" x2="27.94" y2="40.64" width="0.1524" layer="91"/>
<junction x="27.94" y="40.64"/>
</segment>
</net>
<net name="N$6" class="0">
<segment>
<wire x1="27.94" y1="76.2" x2="27.94" y2="53.34" width="0.1524" layer="91"/>
<pinref part="JP1" gate="A" pin="3"/>
<wire x1="27.94" y1="53.34" x2="12.7" y2="53.34" width="0.1524" layer="91"/>
<pinref part="R4" gate="G$1" pin="2"/>
<wire x1="27.94" y1="76.2" x2="48.26" y2="76.2" width="0.1524" layer="91"/>
</segment>
</net>
<net name="N$5" class="0">
<segment>
<pinref part="LED1" gate="G$1" pin="C"/>
<pinref part="U1" gate="G$1" pin="C"/>
<wire x1="48.26" y1="58.42" x2="48.26" y2="55.88" width="0.1524" layer="91"/>
</segment>
</net>
<net name="N$1" class="0">
<segment>
<pinref part="LED1" gate="G$1" pin="A"/>
<pinref part="R4" gate="G$1" pin="1"/>
</segment>
</net>
</nets>
</sheet>
</sheets>
</schematic>
</drawing>
</eagle>
